module main

go 1.17

require (
	github.com/nats-io/nats.go v1.13.0 // indirect
	github.com/nats-io/nkeys v0.3.0 // indirect
	github.com/nats-io/nuid v1.0.1 // indirect
	golang.org/x/crypto v0.0.0-20210314154223-e6e6c4f2bb5b // indirect
	google.golang.org/protobuf v1.27.1 // indirect
)
